[
    {
        "img": "emag/Images/Products/freezer1.jpg",
        "info": "Фризер Whirlpool AFB601AP, 88 л, 4 Отделения, Клас A+, Бял ",
        "price": "369",
        "supPrice": "79",
        "brand": "Whirlpool",
        "tags": ["фризер", "бял"]
    },
    {
        "img": "emag/Images/Products/freezer2.jpg",
        "info": "Фризер Star-Light CF-86AP, 86 л, 3 Настройки, Клас A+, H 85 см, Бял ",
        "price": "274",
        "supPrice": "00",
        "brand":"Star-Light",
        "tags": ["фризер", "бял"]
    },
    {
        "img": "emag/Images/Products/freezer3.jpg",
        "info": "Фризер Star-Light CF-157AP, 157 l, Клас A+, 5 рафта, H 142 cм, Бял ",
        "price": "349",
        "supPrice": "09",
        "brand":"Star-Light",
        "tags": ["фризер", "бял"]
    },
    {
        "img": "emag/Images/Products/freezer4.jpg",
        "info": "Фризер Arctic ANC246+, 215 л, Клас A+, H 151 см, Бял ",
        "price": "499",
        "supPrice": "99",
        "brand":"Arctic",
        "tags": ["фризер", "бял"]
    },
    {
        "img": "emag/Images/Products/freezer5.jpg",
        "info": "Фризер Arctic ANC195+, 162 Л, Клас A+, H 136.2 cм, Бял ",
        "price": "899",
        "supPrice": "99",
        "brand":"Arctic",
        "tags": ["фризер", "бял"]
    }
]