[
    {
        "img": "emag/Images/Products/vidcamera1.jpg",
        "info": "Видеокамера Sony HDR-PJ410 с вграден проектор, Full HD, Черна ",
        "price": "699",
        "supPrice": "79",
        "brand":"Sony",
        "tags": ["видеокамера", "черна"]
    },
    {
        "img": "emag/Images/Products/vidcamera2.jpg",
        "info": "Видеокамера Sony HDR-CX625, Full-HD, Черна ",
        "price": "941",
        "supPrice": "00",
        "brand":"Sony",
        "tags": ["видеокамера", "черна"]
    },
    {
        "img": "emag/Images/Products/vidcamera3.jpg",
        "info": "Видеокамера Canon Legria HF R706, Full HD, Черна ",
        "price": "519",
        "supPrice": "09",
        "brand":"Canon",
        "tags": ["видеокамера", "черна"]
    },
    {
        "img": "emag/Images/Products/vidcamera4.jpg",
        "info": "Видеокамера Panasonic HC-X920EP-K, Full HD, Wi-Fi, Black ",
        "price": "1.199",
        "supPrice": "99",
        "brand": "Panasonic",
        "tags": ["видеокамера", "черна"]
    },
    {
        "img": "emag/Images/Products/vidcamera5.jpg",
        "info": "Видеокамера Sony FDR-AX33, Ultra HD 4K, Черна ",
        "price": "1.599",
        "supPrice": "99",
        "brand":"Sony",
        "tags": ["видеокамера", "черна"]
    }
]